{
  "images" : [
    {
      "idiom" : "iphone",
      "scale" : "1x",
      "filename" : "addButton_h~iphone.png"
    },
    {
      "idiom" : "iphone",
      "scale" : "2x",
      "filename" : "addButton_h@2x~iphone.png"
    }
  ],
  "info" : {
    "version" : 1,
    "author" : "xcode"
  }
}