{
  "images" : [
    {
      "idiom" : "ipad",
      "scale" : "1x",
      "filename" : "button_edit_h~ipad.png"
    },
    {
      "idiom" : "ipad",
      "scale" : "2x",
      "filename" : "button_edit_h@2x~ipad.png"
    }
  ],
  "info" : {
    "version" : 1,
    "author" : "xcode"
  }
}